<svg width="20" height="20" viewBox="0 0 20 20" fill="none" xmlns="http://www.w3.org/2000/svg">
<path d="M7.06666 11.0324C7.06666 10.7825 6.86182 10.5776 6.61192 10.5776H5.02651C4.77661 10.5776 4.57178 10.7825 4.57178 11.0324V12.6178C4.57178 12.8677 4.77661 13.0725 5.02651 13.0725H6.61192C6.86182 13.0725 7.06666 12.8677 7.06666 12.6178V11.0324Z" fill="#969594"/>
<path d="M11.0242 11.0324C11.0242 10.7825 10.8193 10.5776 10.5694 10.5776H8.98403C8.73413 10.5776 8.5293 10.7825 8.5293 11.0324V12.6178C8.5293 12.8677 8.73413 13.0725 8.98403 13.0725H10.5694C10.8193 13.0725 11.0242 12.8677 11.0242 12.6178V11.0324Z" fill="#969594"/>
<path d="M14.9815 11.0324C14.9815 10.7825 14.7766 10.5776 14.5267 10.5776H12.9413C12.6914 10.5776 12.4866 10.7825 12.4866 11.0324V12.6178C12.4866 12.8677 12.6914 13.0725 12.9413 13.0725H14.5267C14.7766 13.0725 14.9815 12.8677 14.9815 12.6178V11.0324Z" fill="#969594"/>
<path d="M7.06666 14.9938C7.06666 14.7439 6.86182 14.5391 6.61192 14.5391H5.02651C4.77661 14.5391 4.57178 14.7439 4.57178 14.9938V16.5792C4.57178 16.8291 4.77661 17.0339 5.02651 17.0339H6.61192C6.86182 17.0339 7.06666 16.8291 7.06666 16.5792V14.9938Z" fill="#969594"/>
<path d="M11.0242 14.9938C11.0242 14.7439 10.8193 14.5391 10.5694 14.5391H8.98403C8.73413 14.5391 8.5293 14.7439 8.5293 14.9938V16.5792C8.5293 16.8291 8.73413 17.0339 8.98403 17.0339H10.5694C10.8193 17.0339 11.0242 16.8291 11.0242 16.5792V14.9938Z" fill="#969594"/>
<path d="M14.9815 14.9938C14.9815 14.7439 14.7766 14.5391 14.5267 14.5391H12.9413C12.6914 14.5391 12.4866 14.7439 12.4866 14.9938V16.5792C12.4866 16.8291 12.6914 17.0339 12.9413 17.0339H14.5267C14.7766 17.0339 14.9815 16.8291 14.9815 16.5792V14.9938Z" fill="#969594"/>
<path d="M17.8165 2.2286V4.64564C17.8165 5.73945 16.9275 6.62024 15.8378 6.62024H14.5883C13.4945 6.62024 12.5973 5.73945 12.5973 4.64564V2.21631H6.96436V4.64564C6.96436 5.73945 6.06718 6.62024 4.97337 6.62024H3.71979C2.62597 6.62024 1.74109 5.73945 1.74109 4.64564V2.2286C0.786563 2.25728 0 3.04793 0 4.01885V18.1975C0 19.1889 0.802949 20 1.79435 20H17.7632C18.7505 20 19.5576 19.1848 19.5576 18.1975V4.01885C19.5535 3.04793 18.771 2.25728 17.8165 2.2286ZM17.2347 17.3126C17.2347 17.7386 16.8865 18.0868 16.4605 18.0868H3.06432C2.63826 18.0868 2.29004 17.7386 2.29004 17.3126V9.98771C2.29004 9.56166 2.63826 9.21344 3.06432 9.21344H16.4605C16.8865 9.21344 17.2347 9.56166 17.2347 9.98771V17.3126Z" fill="#969594"/>
<path d="M3.71575 5.32159H4.95295C5.32985 5.32159 5.633 5.01844 5.633 4.64154V0.680049C5.633 0.303154 5.32985 0 4.95295 0H3.71575C3.34295 0 3.03979 0.303154 3.03979 0.680049V4.64564C3.03979 5.01844 3.34295 5.32159 3.71575 5.32159Z" fill="#969594"/>
<path d="M14.5677 5.32159H15.8049C16.1777 5.32159 16.485 5.01844 16.485 4.64154V0.680049C16.485 0.303154 16.1818 0 15.8049 0H14.5677C14.1909 0 13.8877 0.303154 13.8877 0.680049V4.64564C13.8918 5.01844 14.1949 5.32159 14.5677 5.32159Z" fill="#969594"/>
</svg>
