<svg width="17" height="18" viewBox="0 0 17 18" fill="none" xmlns="http://www.w3.org/2000/svg">
<path d="M11.7535 5.76994C12.1059 5.41757 12.6772 5.41757 13.0296 5.76994C13.382 6.1223 13.382 6.6936 13.0296 7.04597L7.61583 12.4597C7.26346 12.8121 6.69216 12.8121 6.33979 12.4597L3.33215 9.45209C2.97978 9.09972 2.97978 8.52842 3.33215 8.17605C3.68451 7.82368 4.25581 7.82368 4.60818 8.17605L6.97781 10.5457L11.7535 5.76994Z" fill="white"/>
</svg>
