<svg width="16" height="16" viewBox="0 0 16 16" fill="none" xmlns="http://www.w3.org/2000/svg">
<path d="M0 12.1393V14.5333C0 14.9752 0.358172 15.3333 0.8 15.3333H3.194L12.6142 5.91316L9.42017 2.71916L0 12.1393ZM15.0842 3.44313C15.4164 3.11096 15.4164 2.57436 15.0842 2.24219L13.0911 0.249132C12.759 -0.083044 12.2224 -0.083044 11.8902 0.249132L10.3315 1.8078L13.5255 5.00181L15.0842 3.44313Z" fill="#969594"/>
</svg>
