<svg width="23" height="23" viewBox="0 0 23 23" fill="none" xmlns="http://www.w3.org/2000/svg">
<path d="M20.9785 5.39062H17.6094V2.02148C17.6094 0.906838 16.7025 0 15.5879 0H2.02148C0.906838 0 0 0.906838 0 2.02148V20.9785C0 22.0932 0.906838 23 2.02148 23C2.09763 23 20.4651 23 20.9785 23C22.0932 23 23 22.0932 23 20.9785V7.41211C23 6.29746 22.0932 5.39062 20.9785 5.39062ZM1.34766 2.02148C1.34766 1.64994 1.64994 1.34766 2.02148 1.34766H15.5879C15.9594 1.34766 16.2617 1.64994 16.2617 2.02148V2.69531H1.34766V2.02148ZM2.02148 21.6523C1.64994 21.6523 1.34766 21.3501 1.34766 20.9785V18.957H10.8711V20.9785C10.8711 21.2147 10.9122 21.4414 10.987 21.6523H2.02148ZM10.8711 7.41211V17.6094H1.34766V4.04297H16.2617V5.39062H12.8926C11.7779 5.39062 10.8711 6.29746 10.8711 7.41211ZM21.6523 20.9785C21.6523 21.3501 21.3501 21.6523 20.9785 21.6523H12.8926C12.521 21.6523 12.2188 21.3501 12.2188 20.9785V20.3047H21.6523V20.9785ZM21.6523 18.957H12.2188V9.43359H21.6523V18.957ZM21.6523 8.08594H12.2188V7.41211C12.2188 7.04056 12.521 6.73828 12.8926 6.73828H20.9785C21.3501 6.73828 21.6523 7.04056 21.6523 7.41211V8.08594Z" fill="#353A40"/>
<path d="M8.75977 5.39062H3.36914C2.99701 5.39062 2.69531 5.69232 2.69531 6.06445V10.1074C2.69531 10.4796 2.99701 10.7812 3.36914 10.7812H8.75977C9.1319 10.7812 9.43359 10.4796 9.43359 10.1074V6.06445C9.43359 5.69232 9.1319 5.39062 8.75977 5.39062ZM8.08594 9.43359H4.04297V6.73828H8.08594V9.43359Z" fill="#353A40"/>
<path d="M6.06445 12.1289H3.36914C2.99701 12.1289 2.69531 12.4306 2.69531 12.8027C2.69531 13.1749 2.99701 13.4766 3.36914 13.4766H6.06445C6.43659 13.4766 6.73828 13.1749 6.73828 12.8027C6.73828 12.4306 6.43659 12.1289 6.06445 12.1289Z" fill="#353A40"/>
<path d="M19.6309 10.7812H14.2402C13.8681 10.7812 13.5664 11.0829 13.5664 11.4551C13.5664 11.8272 13.8681 12.1289 14.2402 12.1289H19.6309C20.003 12.1289 20.3047 11.8272 20.3047 11.4551C20.3047 11.0829 20.003 10.7812 19.6309 10.7812Z" fill="#353A40"/>
<path d="M16.9355 13.4766H14.2402C13.8681 13.4766 13.5664 13.7783 13.5664 14.1504C13.5664 14.5225 13.8681 14.8242 14.2402 14.8242H16.9355C17.3077 14.8242 17.6094 14.5225 17.6094 14.1504C17.6094 13.7783 17.3077 13.4766 16.9355 13.4766Z" fill="#353A40"/>
</svg>
