<svg width="26" height="26" viewBox="0 0 26 26" fill="none" xmlns="http://www.w3.org/2000/svg">
<path d="M13 9C14.1 9 15 8.1 15 7C15 5.9 14.1 5 13 5C11.9 5 11 5.9 11 7C11 8.1 11.9 9 13 9ZM13 11C11.9 11 11 11.9 11 13C11 14.1 11.9 15 13 15C14.1 15 15 14.1 15 13C15 11.9 14.1 11 13 11ZM13 17C11.9 17 11 17.9 11 19C11 20.1 11.9 21 13 21C14.1 21 15 20.1 15 19C15 17.9 14.1 17 13 17Z" fill="#969594"/>
</svg>
