<svg width="1147" height="188" viewBox="0 0 1147 188" fill="none" xmlns="http://www.w3.org/2000/svg">
<path fill-rule="evenodd" clip-rule="evenodd" d="M121.5 102.602C275.155 17.4585 352.396 37.6272 414.423 57.3025C441.814 65.9909 467.34 74.0876 497.243 72.0442C538.255 69.2417 561.968 56.0783 587.771 41.7543C623.388 21.9828 662.989 0 757.564 0C848.673 0 894.915 30.3998 938.47 59.0338C972.883 81.657 1005.62 103.178 1057.48 107.733C1089.02 110.503 1119.26 105.154 1148 97.019V188H-3.05176e-05V102.602H121.5Z" fill="white" fill-opacity="0.31"/>
<path fill-rule="evenodd" clip-rule="evenodd" d="M260.559 69.3702C168.018 26.6017 82.4105 -12.9623 1 72.9526V188H1147V62.4568C1108.26 50.4349 1072.32 68.7802 1042.47 84.0163C1025.52 92.6652 1010.54 100.312 998.123 100.834C981.405 101.536 963.67 96.196 940.326 89.1666C909.396 79.8534 868.621 67.5752 807.318 62.4568C743.625 57.1389 676.492 75.0067 612.03 92.1636C567.618 103.984 524.474 115.467 484.597 118.798C405.119 136.18 330.839 101.851 260.559 69.3702Z" fill="white" fill-opacity="0.68"/>
<path fill-rule="evenodd" clip-rule="evenodd" d="M208.944 70.7401L208.94 70.738C140.829 38.9564 74.5539 8.03111 1 91.3029V188H1147V57.6163C1112.15 45.5955 1072.05 60.141 1027.51 76.292C983.847 92.127 935.928 109.505 884.539 104.903C833.698 100.351 800.287 84.7734 765.526 68.5664C719.965 47.3241 672.083 25 579.593 25C485.309 25 446.329 49.4421 411.351 71.3746C385.838 87.3725 362.454 102.035 321.29 104.903C287.41 107.264 251.546 90.5722 214.321 73.2469C212.528 72.4121 210.735 71.5758 208.944 70.7401Z" fill="#F7F7F7"/>
</svg>
