<svg width="14" height="14" viewBox="0 0 14 14" fill="none" xmlns="http://www.w3.org/2000/svg">
<path d="M13.5906 0.409406C13.0446 -0.136469 12.1594 -0.136469 11.6134 0.409406L7.00876 5.01403L2.40413 0.409406C1.85546 -0.120514 0.98333 -0.112936 0.443956 0.426439C-0.0954191 0.965814 -0.102998 1.83795 0.426922 2.38661L5.03155 6.99124L0.426922 11.5959C0.0634222 11.947 -0.0823598 12.4668 0.045607 12.9557C0.173574 13.4446 0.555375 13.8264 1.04426 13.9544C1.53315 14.0824 2.05305 13.9366 2.40413 13.5731L7.00876 8.96845L11.6134 13.5731C12.1621 14.103 13.0342 14.0954 13.5736 13.556C14.1129 13.0167 14.1205 12.1445 13.5906 11.5959L8.98596 6.99124L13.5906 2.38661C14.1365 1.84057 14.1365 0.955445 13.5906 0.409406Z" fill="#E7E4EB"/>
</svg>
