<svg width="394" height="483" viewBox="0 0 394 483" fill="none" xmlns="http://www.w3.org/2000/svg">
<path d="M98.0242 310.194C98.0242 302.187 92.4682 297.412 82.6652 297.412C78.6622 297.412 75.9512 297.807 74.5332 298.185V323.875C76.2122 324.253 78.2762 324.379 81.1212 324.379C91.5702 324.379 98.0242 319.1 98.0242 310.194Z" fill="#E4E0E9"/>
<path d="M158.709 297.681C154.319 297.681 151.482 298.06 149.804 298.453V355.349C151.483 355.743 154.194 355.743 156.645 355.743C174.454 355.869 186.069 346.066 186.069 325.294C186.195 307.231 175.611 297.681 158.709 297.681Z" fill="#E4E0E9"/>
<path d="M271.458 0H77.8111C49.5211 0 26.4962 23.041 26.4962 51.315V241.069H21.4842C10.0662 241.069 0.806152 250.32 0.806152 261.748V387.152C0.806152 398.579 10.0652 407.829 21.4842 407.829H26.4962V430.824C26.4962 459.129 49.5211 482.139 77.8111 482.139H342.034C370.306 482.139 393.334 459.128 393.334 430.824V121.449L271.458 0ZM55.0532 284.379C61.1132 283.355 69.6312 282.583 81.6322 282.583C93.7602 282.583 102.404 284.898 108.212 289.548C113.76 293.93 117.504 301.163 117.504 309.675C117.504 318.185 114.667 325.42 109.505 330.321C102.791 336.641 92.8622 339.478 81.2472 339.478C78.6622 339.478 76.3451 339.35 74.5331 339.099V370.195H55.0532V284.379ZM342.034 450.713H77.8111C66.8571 450.713 57.9371 441.793 57.9371 430.824V407.829H304.247C315.667 407.829 324.926 398.579 324.926 387.152V261.748C324.926 250.32 315.667 241.069 304.247 241.069H57.9371V51.315C57.9371 40.377 66.8581 31.457 77.8111 31.457L259.701 31.267V98.5C259.701 118.138 275.635 134.087 295.288 134.087L361.15 133.898L361.891 430.823C361.891 441.793 352.987 450.713 342.034 450.713ZM130.065 369.801V284.379C137.29 283.229 146.707 282.583 156.645 282.583C173.161 282.583 183.871 285.546 192.263 291.865C201.294 298.579 206.967 309.281 206.967 324.646C206.967 341.289 200.907 352.779 192.514 359.87C183.357 367.482 169.418 371.092 152.389 371.092C142.191 371.092 134.966 370.446 130.065 369.801ZM270.892 319.226V335.222H239.662V370.195H219.922V283.229H273.082V299.351H239.662V319.226H270.892Z" fill="#E4E0E9"/>
</svg>
