<svg width="394" height="483" viewBox="0 0 394 483" fill="none" xmlns="http://www.w3.org/2000/svg">
<path d="M82.0191 310.194C82.0191 302.187 76.4722 297.412 66.6682 297.412C62.6652 297.412 59.9542 297.807 58.5352 298.185V323.875C60.2072 324.253 62.2712 324.379 65.1082 324.379C75.5572 324.379 82.0191 319.1 82.0191 310.194Z" fill="#E4E0E9"/>
<path d="M271.458 0H77.8121C49.5211 0 26.4962 23.041 26.4962 51.315V241.069H21.4832C10.0572 241.069 0.806152 250.32 0.806152 261.748V387.152C0.806152 398.579 10.0572 407.829 21.4832 407.829H26.4962V430.824C26.4962 459.129 49.5211 482.139 77.8121 482.139H342.032C370.307 482.139 393.334 459.128 393.334 430.824V121.449L271.458 0ZM39.0562 284.379C45.1082 283.355 53.6192 282.583 65.6282 282.583C77.7632 282.583 86.4001 284.898 92.2171 289.548C97.7631 293.93 101.499 301.163 101.499 309.675C101.499 318.185 98.6621 325.42 93.5081 330.321C86.7942 336.641 76.8492 339.478 65.2502 339.478C62.6652 339.478 60.3332 339.35 58.5352 339.099V370.195H39.0562V284.379ZM342.032 450.713H77.8121C66.8581 450.713 57.9371 441.793 57.9371 430.824V407.829H304.241C315.667 407.829 324.918 398.579 324.918 387.152V261.748C324.918 250.32 315.667 241.069 304.241 241.069H57.9371V51.315C57.9371 40.377 66.8581 31.457 77.8121 31.457L259.702 31.267V98.5C259.702 118.138 275.636 134.087 295.289 134.087L361.15 133.898L361.891 430.823C361.891 441.793 352.987 450.713 342.032 450.713ZM168.006 308.649V283.228H186.069V370.194H165.424L146.842 336.64C141.673 327.357 135.998 316.119 131.744 305.938L131.364 306.064C131.87 317.539 132.138 329.798 132.138 344V370.194H114.06V283.228H137.039L155.1 315.095C160.271 324.252 165.424 335.095 169.3 344.898H169.679C168.386 333.426 168.006 321.667 168.006 308.649ZM247.141 355.221C251.662 355.221 255.273 354.701 256.817 353.93V335.742H243.405V320.39H275.794V366.19C269.726 368.255 258.236 371.091 246.762 371.091C230.892 371.091 219.403 367.088 211.396 359.35C203.406 351.864 199.008 340.517 199.15 327.735C199.276 298.831 220.302 282.314 248.828 282.314C260.05 282.314 268.701 284.505 272.957 286.585L268.828 302.313C264.053 300.25 258.111 298.579 248.56 298.579C232.185 298.579 219.796 307.862 219.796 326.711C219.795 344.647 231.016 355.221 247.141 355.221Z" fill="#E4E0E9"/>
</svg>
