<svg width="18" height="20" viewBox="0 0 18 20" fill="none" xmlns="http://www.w3.org/2000/svg">
<rect x="7.20001" width="3.6" height="19.8" rx="1.8" fill="#969594"/>
<rect y="11.6992" width="3.6" height="18" rx="1.8" transform="rotate(-90 0 11.6992)" fill="#969594"/>
</svg>
