<svg width="366" height="287" viewBox="0 0 366 287" fill="none" xmlns="http://www.w3.org/2000/svg">
<path d="M0 77H111C122.046 77 131 85.9543 131 97V251C131 262.046 122.046 271 111 271H0V77Z" fill="white" fill-opacity="0.15"/>
<path d="M0 0H112V45C112 56.0457 103.046 65 92 65H0V0Z" fill="white" fill-opacity="0.15"/>
<rect x="167.377" y="77.3607" width="117.158" height="113.497" rx="20" fill="white" fill-opacity="0.15"/>
<rect x="247.923" y="157.907" width="117.158" height="128.142" rx="20" fill="white" fill-opacity="0.15"/>
<path d="M204 0H365V83C365 94.0457 356.046 103 345 103H224C212.954 103 204 94.0457 204 83V0Z" fill="white" fill-opacity="0.15"/>
</svg>
