<svg width="23" height="23" viewBox="0 0 23 23" fill="none" xmlns="http://www.w3.org/2000/svg">
<path d="M22.4058 7.23813C21.6177 6.44993 20.3352 6.44997 19.5468 7.23831C19.3043 7.48102 17.756 9.03051 17.5195 9.26725V3.92734C17.5195 3.38738 17.3092 2.87976 16.9274 2.49797L15.0216 0.59207C14.6398 0.210234 14.1322 0 13.5922 0H2.02148C0.906838 0 0 0.906838 0 2.02148V20.9785C0 22.0932 0.906838 23 2.02148 23H15.498C16.6127 23 17.5195 22.0932 17.5195 20.9785V14.9873L22.4058 10.097C23.1958 9.30696 23.196 8.02821 22.4058 7.23813ZM13.4766 1.34766C13.6039 1.34766 13.8492 1.3256 14.0687 1.545L15.9745 3.4509C16.1884 3.66477 16.1719 3.89913 16.1719 4.04297H13.4766V1.34766ZM16.1719 20.9785C16.1719 21.3501 15.8696 21.6523 15.498 21.6523H2.02148C1.64994 21.6523 1.34766 21.3501 1.34766 20.9785V2.02148C1.34766 1.64994 1.64994 1.34766 2.02148 1.34766H12.1289V4.7168C12.1289 5.08893 12.4306 5.39062 12.8027 5.39062H16.1719V10.6161C16.1719 10.6161 14.1839 12.6058 14.1838 12.6058L13.2313 13.5583C13.1574 13.6323 13.1016 13.7225 13.0685 13.8217L12.1156 16.6805C12.0348 16.9227 12.0979 17.1896 12.2784 17.3701C12.4591 17.5508 12.7261 17.6135 12.9679 17.5329L15.8267 16.5799C15.926 16.5469 16.0162 16.4911 16.0901 16.4171L16.1719 16.3354V20.9785ZM14.6607 14.0348L15.6136 14.9877L15.2496 15.3517L13.8203 15.8282L14.2967 14.3988L14.6607 14.0348ZM16.5664 14.0346L15.6135 13.0817C16.1209 12.5738 18.3746 10.3182 18.8525 9.83982L19.8055 10.7927L16.5664 14.0346ZM21.4527 9.14421L20.758 9.83942L19.8051 8.88649L20.5 8.19105C20.7628 7.92831 21.1902 7.92835 21.4529 8.19105C21.7156 8.45385 21.717 8.87984 21.4527 9.14421Z" fill="#343A40"/>
<path d="M12.8027 6.73828H3.36914C2.99701 6.73828 2.69531 7.03998 2.69531 7.41211C2.69531 7.78424 2.99701 8.08594 3.36914 8.08594H12.8027C13.1749 8.08594 13.4766 7.78424 13.4766 7.41211C13.4766 7.03998 13.1749 6.73828 12.8027 6.73828Z" fill="#343A40"/>
<path d="M10.1074 9.43359H3.36914C2.99701 9.43359 2.69531 9.73529 2.69531 10.1074C2.69531 10.4796 2.99701 10.7812 3.36914 10.7812H10.1074C10.4796 10.7812 10.7812 10.4796 10.7812 10.1074C10.7812 9.73529 10.4796 9.43359 10.1074 9.43359Z" fill="#343A40"/>
<path d="M10.1074 12.1289H3.36914C2.99701 12.1289 2.69531 12.4306 2.69531 12.8027C2.69531 13.1749 2.99701 13.4766 3.36914 13.4766H10.1074C10.4796 13.4766 10.7812 13.1749 10.7812 12.8027C10.7812 12.4306 10.4796 12.1289 10.1074 12.1289Z" fill="#343A40"/>
<path d="M10.1074 14.8242H3.36914C2.99701 14.8242 2.69531 15.1259 2.69531 15.498C2.69531 15.8702 2.99701 16.1719 3.36914 16.1719H10.1074C10.4796 16.1719 10.7812 15.8702 10.7812 15.498C10.7812 15.1259 10.4796 14.8242 10.1074 14.8242Z" fill="#343A40"/>
<path d="M12.8027 18.957H8.75977C8.38763 18.957 8.08594 19.2587 8.08594 19.6309C8.08594 20.003 8.38763 20.3047 8.75977 20.3047H12.8027C13.1749 20.3047 13.4766 20.003 13.4766 19.6309C13.4766 19.2587 13.1749 18.957 12.8027 18.957Z" fill="#343A40"/>
</svg>
