<svg width="17" height="17" viewBox="0 0 17 17" fill="none" xmlns="http://www.w3.org/2000/svg">
<path d="M7.65037 4.06547C7.4933 4.06547 7.35139 3.97197 7.2893 3.82747L6.77376 2.62454C6.47589 1.92939 5.7922 1.47852 5.0357 1.47852H1.89107C0.846674 1.47852 0 2.32519 0 3.36958V4.01928V6.65243V13.166C0 14.4673 1.05474 15.522 2.35598 15.522H14.644C15.9453 15.522 17 14.4673 17 13.166V6.42145C17 5.12021 15.9453 4.06547 14.644 4.06547H7.65037Z" fill="white"/>
</svg>
