<svg width="23" height="24" viewBox="0 0 23 24" fill="none" xmlns="http://www.w3.org/2000/svg">
<path d="M7.63458 6.79688H3.79325C3.39548 6.79688 3.073 7.11169 3.073 7.5C3.073 7.88831 3.39548 8.20312 3.79325 8.20312H7.63458C8.03235 8.20312 8.35484 7.88831 8.35484 7.5C8.35484 7.11169 8.03235 6.79688 7.63458 6.79688Z" fill="#353A40"/>
<path d="M7.63458 10.5469H3.79325C3.39548 10.5469 3.073 10.8617 3.073 11.25C3.073 11.6383 3.39548 11.9531 3.79325 11.9531H7.63458C8.03235 11.9531 8.35484 11.6383 8.35484 11.25C8.35484 10.8617 8.03235 10.5469 7.63458 10.5469Z" fill="#353A40"/>
<path d="M7.63458 14.2969H3.79325C3.39548 14.2969 3.073 14.6117 3.073 15C3.073 15.3883 3.39548 15.7031 3.79325 15.7031H7.63458C8.03235 15.7031 8.35484 15.3883 8.35484 15C8.35484 14.6117 8.03235 14.2969 7.63458 14.2969Z" fill="#353A40"/>
<path d="M17.9582 12.8873V6.46781C17.9582 5.54109 17.5922 4.66683 16.9276 4.00561L14.0052 1.05534C14.0038 1.05394 14.0023 1.05248 14.0009 1.05108C13.3281 0.383109 12.3918 0 11.4323 0H2.16075C0.969313 0 0 0.946266 0 2.10938V20.3438C0 21.5069 0.969313 22.4531 2.16075 22.4531H13.2926C14.319 23.4109 15.7093 24 17.238 24C20.4152 24 23 21.4977 23 18.4219C23 15.5822 20.7968 13.2315 17.9582 12.8873ZM1.4405 20.3438V2.10938C1.4405 1.72167 1.76361 1.40625 2.16075 1.40625H11.4323C12.0072 1.40625 12.5683 1.63552 12.972 2.03522L15.8939 4.98502C15.8953 4.98642 15.8966 4.98783 15.898 4.98919C16.2976 5.38608 16.5177 5.91117 16.5177 6.46786V12.888C13.7058 13.2347 11.524 15.5843 11.524 18.4219C11.524 19.3703 11.768 20.2641 12.1975 21.0469H2.16075C1.76361 21.0469 1.4405 20.7315 1.4405 20.3438ZM17.238 22.5938C14.8816 22.5938 12.9645 20.7223 12.9645 18.4219C12.9645 16.1215 14.8816 14.25 17.238 14.25C19.6209 14.25 21.5595 16.1215 21.5595 18.4219C21.5595 20.7223 19.6209 22.5938 17.238 22.5938Z" fill="#353A40"/>
<path d="M18.8995 16.7567C18.594 16.5082 18.1398 16.5484 17.8851 16.8467L16.6694 18.2708L16.3937 17.7324C16.2158 17.3851 15.7832 17.2442 15.4274 17.418C15.0715 17.5916 14.9274 18.014 15.1053 18.3613L15.8735 19.8613C15.9822 20.0735 16.1933 20.2179 16.4347 20.2453C16.4625 20.2484 16.4902 20.25 16.5178 20.25C16.7301 20.25 16.9333 20.1583 17.0711 19.997L18.9917 17.747C19.2464 17.4486 19.2051 17.0052 18.8995 16.7567Z" fill="#353A40"/>
<path d="M11.4761 8.20312H12.2444C12.6421 8.20312 12.9646 7.88831 12.9646 7.5C12.9646 7.11169 12.6421 6.79688 12.2444 6.79688H11.4761C11.0783 6.79688 10.7559 7.11169 10.7559 7.5C10.7559 7.88831 11.0783 8.20312 11.4761 8.20312Z" fill="#353A40"/>
<path d="M12.9646 11.25C12.9646 10.8617 12.6421 10.5469 12.2444 10.5469H11.4761C11.0783 10.5469 10.7559 10.8617 10.7559 11.25C10.7559 11.6383 11.0783 11.9531 11.4761 11.9531H12.2444C12.6421 11.9531 12.9646 11.6383 12.9646 11.25Z" fill="#353A40"/>
</svg>
